include "../optim/default.txt"
include "../eval/default.txt"

seed = 0

editor {
    decoder_cell = AttentionDecoderCell
    vocab_size = 10000  # a proper size would be >20000
    word_dim = 300
    hidden_dim = 256  # hidden state dim of encoder and decoder
    agenda_dim = 256  # agenda vector dim
    edit_dim = 256 # edit vector dimension
    attention_dim = 128
    encoder_layers = 3
    decoder_layers = 3
    no_insert_delete_attn = False
    edit_dropout = True
    ident_pr = 0.01
    attend_pr = 0.0
    enable_vae = True
    lamb_reg = 50.0
    norm_eps = 0.1
    norm_max = 7.5
    kill_edit = True
    embed_sentence = False
    wvec_path = glove.6B.300d.txt
}

dataset {
    # this path should be relative to $SQUAD_ENTAILMENT_DATA
    path = onebillion_split
    use_diff = True
}

